username,repo_name,stars,repo_url
,mrdoob,89600,https://github.com/mrdoob
pmndrs,react-three-fiber,21700,https://github.com/pmndrs/react-three-fiber
libgdx,libgdx,21200,https://github.com/libgdx/libgdx
,BabylonJS,19500,https://github.com/BabylonJS
ssloy,tinyrenderer,16200,https://github.com/ssloy/tinyrenderer
aframevr,aframe,15100,https://github.com/aframevr/aframe
,lettier,14700,https://github.com/lettier
FreeCAD,FreeCAD,13400,https://github.com/FreeCAD/FreeCAD
CesiumGS,cesium,10000,https://github.com/CesiumGS/cesium
,metafizzy,9600,https://github.com/metafizzy
timzhang642,3D-Machine-Learning,8700,https://github.com/timzhang642/3D-Machine-Learning
,isl-org,8200,https://github.com/isl-org
,blender,7800,https://github.com/blender
a1studmuffin,SpaceshipGenerator,7400,https://github.com/a1studmuffin/SpaceshipGenerator
domlysz,BlenderGIS,6100,https://github.com/domlysz/BlenderGIS
FyroxEngine,Fyrox,6000,https://github.com/FyroxEngine/Fyrox
openscad,openscad,5400,https://github.com/openscad/openscad
google,model-viewer,5400,https://github.com/google/model-viewer
spritejs,spritejs,5100,https://github.com/spritejs/spritejs
jagenjo,webglstudio.js,4900,https://github.com/jagenjo/webglstudio.js
