username,repo_name,stars,repo_url
,localstack,46100,https://github.com/localstack
serverless,serverless,44300,https://github.com/serverless/serverless
,bregman-arie,41100,https://github.com/bregman-arie
donnemartin,data-science-ipython-notebooks,24800,https://github.com/donnemartin/data-science-ipython-notebooks
pulumi,pulumi,15300,https://github.com/pulumi/pulumi
ramitsurana,awesome-kubernetes,13600,https://github.com/ramitsurana/awesome-kubernetes
kubernetes-sigs,kubespray,13600,https://github.com/kubernetes-sigs/kubespray
aws,aws-cli,13500,https://github.com/aws/aws-cli
serverless-stack,sst,12300,https://github.com/serverless-stack/sst
mozilla,sops,12200,https://github.com/mozilla/sops
donnemartin,awesome-aws,11300,https://github.com/donnemartin/awesome-aws
caprover,caprover,10100,https://github.com/caprover/caprover
,apereo,10000,https://github.com/apereo
aws,aws-cdk,9900,https://github.com/aws/aws-cdk
GoogleCloudPlatform,terraformer,9700,https://github.com/GoogleCloudPlatform/terraformer
aws,chalice,9600,https://github.com/aws/chalice
aws-amplify,amplify-js,9100,https://github.com/aws-amplify/amplify-js
aws,serverless-application-model,8900,https://github.com/aws/serverless-application-model
,google,8900,https://github.com/google
,infracost,8700,https://github.com/infracost
