username,repo_name,stars,repo_url
,bitwarden,12100,https://github.com/bitwarden
dotnet,AspNetCore.Docs,11400,https://github.com/dotnet/AspNetCore.Docs
,aspnetboilerplate,10900,https://github.com/aspnetboilerplate
,abpframework,9500,https://github.com/abpframework
nopSolutions,nopCommerce,8000,https://github.com/nopSolutions/nopCommerce
ElectronNET,Electron.NET,6600,https://github.com/ElectronNET/Electron.NET
thangchung,clean-code-dotnet,5900,https://github.com/thangchung/clean-code-dotnet
RicoSuter,NSwag,5700,https://github.com/RicoSuter/NSwag
dotnet,aspnet-api-versioning,2600,https://github.com/dotnet/aspnet-api-versioning
,FastEndpoints,2600,https://github.com/FastEndpoints
,smartstore,2500,https://github.com/smartstore
JimBobSquarePants,ImageProcessor,2500,https://github.com/JimBobSquarePants/ImageProcessor
serenity-is,Serenity,2300,https://github.com/serenity-is/Serenity
,loic-sharma,2300,https://github.com/loic-sharma
,mjebrahimi,2200,https://github.com/mjebrahimi
TrilonIO,aspnetcore-angular-universal,1500,https://github.com/TrilonIO/aspnetcore-angular-universal
TrilonIO,aspnetcore-Vue-starter,1200,https://github.com/TrilonIO/aspnetcore-Vue-starter
,MarimerLLC,1100,https://github.com/MarimerLLC
antonioCoco,SharPyShell,762,https://github.com/antonioCoco/SharPyShell
riganti,dotvvm,666,https://github.com/riganti/dotvvm
