username,repo_name,stars,repo_url
,sindresorhus,242000,https://github.com/sindresorhus
vinta,awesome-python,159000,https://github.com/vinta/awesome-python
awesome-selfhosted,awesome-selfhosted,123000,https://github.com/awesome-selfhosted/awesome-selfhosted
avelino,awesome-go,97600,https://github.com/avelino/awesome-go
trimstray,the-book-of-secret-knowledge,91700,https://github.com/trimstray/the-book-of-secret-knowledge
papers-we-love,papers-we-love,70200,https://github.com/papers-we-love/papers-we-love
521xueweihan,HelloGitHub,65700,https://github.com/521xueweihan/HelloGitHub
Hack-with-Github,Awesome-Hacking,62300,https://github.com/Hack-with-Github/Awesome-Hacking
,jaywcjlove,58400,https://github.com/jaywcjlove
DopplerHQ,awesome-interview-questions,53900,https://github.com/DopplerHQ/awesome-interview-questions
,sindresorhus,50000,https://github.com/sindresorhus
MunGell,awesome-for-beginners,49000,https://github.com/MunGell/awesome-for-beginners
prakhar1989,awesome-courses,46000,https://github.com/prakhar1989/awesome-courses
,Solido,45700,https://github.com/Solido
,wasabeef,45700,https://github.com/wasabeef
fffaraz,awesome-cpp,44300,https://github.com/fffaraz/awesome-cpp
,binhnguyennus,44000,https://github.com/binhnguyennus
vsouza,awesome-ios,42100,https://github.com/vsouza/awesome-ios
tiimgreen,github-cheat-sheet,40000,https://github.com/tiimgreen/github-cheat-sheet
dypsilon,frontend-dev-bookmarks,37600,https://github.com/dypsilon/frontend-dev-bookmarks
