username,repo_name,stars,repo_url
,bregman-arie,41100,https://github.com/bregman-arie
pulumi,pulumi,15300,https://github.com/pulumi/pulumi
microsoft,recommenders,15200,https://github.com/microsoft/recommenders
ramitsurana,awesome-kubernetes,13600,https://github.com/ramitsurana/awesome-kubernetes
,Azure,12700,https://github.com/Azure
mozilla,sops,12200,https://github.com/mozilla/sops
caprover,caprover,10100,https://github.com/caprover/caprover
,google,8900,https://github.com/google
,microsoft,8900,https://github.com/microsoft
,infracost,8700,https://github.com/infracost
,prowler-cloud,7800,https://github.com/prowler-cloud
microsoft,azuredatastudio,7100,https://github.com/microsoft/azuredatastudio
,node-formidable,6600,https://github.com/node-formidable
midwayjs,midway,6500,https://github.com/midwayjs/midway
,Netflix,6500,https://github.com/Netflix
thangchung,clean-code-dotnet,5900,https://github.com/thangchung/clean-code-dotnet
,aquasecurity,5700,https://github.com/aquasecurity
budtmo,docker-android,5500,https://github.com/budtmo/docker-android
bridgecrewio,checkov,5300,https://github.com/bridgecrewio/checkov
nccgroup,ScoutSuite,5200,https://github.com/nccgroup/ScoutSuite
